{
  "_class": "group",
  "do_objectID": "C3EEB7EA-B0CD-4101-B354-EF2D42A60867",
  "exportOptions": {
    "_class": "exportOptions",
    "exportFormats": [
    ],
    "includedLayerIds": [
    ],
    "layerOptions": 0,
    "shouldTrim": false
  },
  "frame": {
    "_class": "rect",
    "constrainProportions": false,
    "height": 28,
    "width": 96,
    "x": 0.5,
    "y": 0
  },
  "hasClickThrough": false,
  "isFlippedHorizontal": false,
  "isFlippedVertical": false,
  "isLocked": false,
  "isVisible": false,
  "layerListExpandedType": 0,
  "layers": [
    {
      "class": "shapeGroup",
      "id": "47FBDD09-868F-49E1-940E-C95F53F75E3F"
    },
    {
      "class": "shapeGroup",
      "id": "734E6778-1E65-455F-9BF6-042D1FA2699C"
    },
    {
      "class": "text",
      "id": "99CEBCBB-8FA7-47D7-AE0B-09A0BCAEE653"
    }
  ],
  "name": "global-components/tooltips/top",
  "nameIsFixed": false,
  "resizingConstraint": 63,
  "resizingType": 0,
  "rotation": 0,
  "shouldBreakMaskChain": false,
  "style": {
    "_class": "style",
    "endDecorationType": 0,
    "miterLimit": 10,
    "startDecorationType": 0
  }
}