{
  "_class": "group",
  "do_objectID": "409B70D1-DBF2-407B-B8B7-C0EBFBABBC81",
  "exportOptions": {
    "_class": "exportOptions",
    "exportFormats": [
    ],
    "includedLayerIds": [
    ],
    "layerOptions": 0,
    "shouldTrim": false
  },
  "frame": {
    "_class": "rect",
    "constrainProportions": false,
    "height": 28,
    "width": 96,
    "x": 0.5,
    "y": 0
  },
  "hasClickThrough": false,
  "isFlippedHorizontal": false,
  "isFlippedVertical": false,
  "isLocked": false,
  "isVisible": false,
  "layerListExpandedType": 0,
  "layers": [
    {
      "class": "shapeGroup",
      "id": "600ED874-237A-4614-A6EE-C6181509C6E0"
    },
    {
      "class": "shapeGroup",
      "id": "AE431FAE-C39D-48B6-9401-0F570130FCEA"
    },
    {
      "class": "text",
      "id": "18EF6397-2B72-417B-99DB-9CF31AD21563"
    }
  ],
  "name": "global-components/tooltips/top",
  "nameIsFixed": false,
  "resizingConstraint": 63,
  "resizingType": 0,
  "rotation": 0,
  "shouldBreakMaskChain": false,
  "style": {
    "_class": "style",
    "endDecorationType": 0,
    "miterLimit": 10,
    "startDecorationType": 0
  }
}