{
  "_class": "shapeGroup",
  "clippingMaskMode": 0,
  "do_objectID": "2C0AD033-00E5-4109-9A64-DC4D13A4DA7D",
  "exportOptions": {
    "_class": "exportOptions",
    "exportFormats": [
    ],
    "includedLayerIds": [
    ],
    "layerOptions": 0,
    "shouldTrim": false
  },
  "frame": {
    "_class": "rect",
    "constrainProportions": false,
    "height": 24,
    "width": 336,
    "x": 120,
    "y": 4
  },
  "hasClickThrough": false,
  "hasClippingMask": false,
  "isFlippedHorizontal": false,
  "isFlippedVertical": false,
  "isLocked": false,
  "isVisible": true,
  "layerListExpandedType": 1,
  "layers": [
    {
      "class": "rectangle",
      "id": "65CDAAD3-6601-43BA-92CA-2113A6B4EE72"
    }
  ],
  "name": "Rectangle 5 Copy",
  "nameIsFixed": false,
  "resizingConstraint": 63,
  "resizingType": 0,
  "rotation": 0,
  "shouldBreakMaskChain": false,
  "style": {
    "sharedObjectID": "27A7847E-69B0-49EA-B54C-4BAE6EEA4A3C"
  },
  "windingRule": 1
}