<?xml version="1.0" encoding="UTF-8"?>
<svg width="16px" height="16px" viewBox="0 0 16 16" version="1.1" xmlns="http://www.w3.org/2000/svg" xmlns:xlink="http://www.w3.org/1999/xlink">
    <!-- Generator: Sketch 63 (92445) - https://sketch.com -->
    <title>icn/chevron-right</title>
    <desc>Created with Sketch.</desc>
    <g id="icn/chevron-right" stroke="none" stroke-width="1" fill="none" fill-rule="evenodd">
        <path d="M10.7071,7.29289 C11.0976,7.68342 11.0976,8.31658 10.7071,8.70711 L7.70711,11.7071 C7.31658,12.0976 6.68342,12.0976 6.29289,11.7071 C5.90237,11.3166 5.90237,10.6834 6.29289,10.2929 L8.58579,8 L6.29289,5.70711 C5.90237,5.31658 5.90237,4.68342 6.29289,4.29289 C6.68342,3.90237 7.31658,3.90237 7.70711,4.29289 L10.7071,7.29289 Z" id="icon" fill="#000000"></path>
    </g>
</svg>