{
  "_class": "group",
  "do_objectID": "D73B367A-6945-4F92-B52D-0E7ECA7CBDFD",
  "exportOptions": {
    "_class": "exportOptions",
    "exportFormats": [
    ],
    "includedLayerIds": [
    ],
    "layerOptions": 0,
    "shouldTrim": false
  },
  "frame": {
    "_class": "rect",
    "constrainProportions": false,
    "height": 24,
    "width": 33,
    "x": 341,
    "y": 0
  },
  "hasClickThrough": false,
  "isFlippedHorizontal": false,
  "isFlippedVertical": false,
  "isLocked": false,
  "isVisible": true,
  "layerListExpandedType": 0,
  "layers": [
    {
      "class": "shapeGroup",
      "id": "5BEA1DF3-A2B4-4793-8109-4E015AE7DF78"
    },
    {
      "class": "shapeGroup",
      "id": "E88FB7AF-7A7D-488F-98CD-B7CEB91A97B0"
    },
    {
      "class": "shapeGroup",
      "id": "81A1BC86-60D2-4C14-8CA1-E70787D21D4C"
    },
    {
      "class": "shapeGroup",
      "id": "36B32AE7-59D3-4171-9539-F50E645F846B"
    },
    {
      "class": "shapeGroup",
      "id": "2D1BDF58-A633-42FB-8C17-D1FFAFAF329F"
    }
  ],
  "name": "Group",
  "nameIsFixed": false,
  "resizingConstraint": 63,
  "resizingType": 0,
  "rotation": 0,
  "shouldBreakMaskChain": false,
  "style": {
    "_class": "style",
    "endDecorationType": 0,
    "miterLimit": 10,
    "startDecorationType": 0
  }
}