{
  "_class": "symbolInstance",
  "do_objectID": "5840BCD2-0BDC-4F46-93D2-CEF9D184DC12",
  "exportOptions": {
    "_class": "exportOptions",
    "exportFormats": [
    ],
    "includedLayerIds": [
    ],
    "layerOptions": 0,
    "shouldTrim": false
  },
  "frame": {
    "_class": "rect",
    "constrainProportions": true,
    "height": 24,
    "width": 24,
    "x": 0,
    "y": 40
  },
  "horizontalSpacing": 0,
  "isFlippedHorizontal": false,
  "isFlippedVertical": false,
  "isLocked": false,
  "isVisible": true,
  "layerListExpandedType": 0,
  "masterInfluenceEdgeMaxXPadding": 0,
  "masterInfluenceEdgeMaxYPadding": 0,
  "masterInfluenceEdgeMinXPadding": 0,
  "masterInfluenceEdgeMinYPadding": 0,
  "name": "avatar",
  "nameIsFixed": true,
  "overrides": {
    "75CE729E-CA6F-4297-BE0D-0A5912EA60AC": {
      "_class": "MSJSONFileReference",
      "_ref": "images/7216e1ccf4598291fba1fa75554b27fbd66e992f",
      "_ref_class": "MSImageData"
    }
  },
  "resizingConstraint": 63,
  "resizingType": 0,
  "rotation": 0,
  "shouldBreakMaskChain": false,
  "style": {
    "_class": "style",
    "endDecorationType": 0,
    "miterLimit": 10,
    "startDecorationType": 0
  },
  "symbolID": "A1C7F93D-1F8B-4BA1-9338-92394881BBD7",
  "verticalSpacing": 0
}